\contentsline {section}{\numberline {1}Introduction}{2}
\contentsline {section}{\numberline {2}User's Guide}{2}
\contentsline {subsection}{\numberline {2.1}Anick resolution and Betti numbers}{2}
\contentsline {section}{\numberline {3}Procedures description}{4}
\contentsline {subsection}{\numberline {3.1}Type Convention}{4}
\contentsline {subsection}{\numberline {3.2}Mode settings}{5}
\contentsline {subsection}{\numberline {3.3}List of functions for an advanced user}{5}
\contentsline {subsection}{\numberline {3.4}The description of further procedures for developers}{6}
