\relax 
\@writefile{toc}{\contentsline {section}{\numberline {1}Introduction}{2}}
\@writefile{lof}{\contentsline {figure}{\numberline {1}{\ignorespaces Document Structure}}{2}}
\newlabel{fig:docstr}{{1}{2}}
\@writefile{toc}{\contentsline {section}{\numberline {2}User's Guide}{2}}
\@writefile{toc}{\contentsline {subsection}{\numberline {2.1}Anick resolution and Betti numbers}{2}}
\newlabel{it:bettiflag}{{3}{2}}
\@writefile{toc}{\contentsline {section}{\numberline {3}Procedures description}{4}}
\@writefile{toc}{\contentsline {subsection}{\numberline {3.1}Type Convention}{4}}
\newlabel{typetable}{{3.1}{5}}
\@writefile{toc}{\contentsline {subsection}{\numberline {3.2}Mode settings}{5}}
\@writefile{toc}{\contentsline {subsection}{\numberline {3.3}List of functions for an advanced user}{5}}
\@writefile{toc}{\contentsline {subsection}{\numberline {3.4}The description of further procedures for developers}{6}}
