#FIG 3.2
Portrait
Center
Inches
Letter 
100.00
Single
0
1200 2
6 2775 2400 5175 2850
6 2775 2400 5175 2850
2 2 0 1 0 7 0 0 -1 0.000 0 0 -1 0 0 5
	 2835 2442 5102 2442 5102 2838 2835 2838 2835 2442
4 0 0 0 0 0 18 0.0000 4 255 1455 3005 2725 Users's guide\001
-6
-6
6 3675 3450 5925 4050
2 2 0 1 0 7 0 0 -1 0.000 0 0 -1 0 0 5
	 3743 3500 5925 3500 5925 4010 3743 4010 3743 3500
4 0 0 0 0 0 18 0.0000 4 255 1965 3825 3825 Developer's guide\001
-6
6 5325 2775 8250 3375
6 5325 2775 8250 3375
2 2 0 1 0 7 0 0 -1 0.000 0 0 -1 0 0 5
	 5353 2819 8243 2819 8243 3328 5353 3328 5353 2819
4 0 0 0 0 0 18 0.0000 4 255 2655 5466 3159 Advanced Users's guide\001
-6
-6
3 3 2 1 0 7 0 0 -1 3.000 0 0 0 18
	 2319 2402 2250 2775 3150 3300 3225 3825 3750 4275 4875 4500
	 5700 4350 7050 3675 8175 3900 8838 3649 9121 3309 8951 2855
	 7761 2402 6230 2686 5494 2289 4416 2289 3509 2176 2886 2232
	 -1.000 -1.000 -1.000 -1.000 -1.000 -1.000 -1.000 -1.000
	 -1.000 -1.000 -1.000 -1.000 -1.000 -1.000 -1.000 -1.000
	 -1.000 -1.000
