Portable Standard Lisp Compiler
Usage: PSLCOMP source-file ...
PSL 3.4 Compiler, 30-Sep-94
1 lisp> ""
2 > 2 > 2 > 2 > 2 > 2 > 2 > 2 > 2 > 2 > 2 > 2 > 2 > 2 > 2 > 2 > 2 > 2 > 2 > 2 > 2 > 2 > 2 > NIL
NIL
PSL-SPECIFIC
SL-SPECIFIC
CL-SPECIFIC
CSL-SPECIFIC
REDUCE-SPECIFIC
UNIX-SPECIFIC
MSDOS-SPECIFIC
PSL-AVOIDING
SL-AVOIDING
CL-AVOIDING
CSL-AVOIDING
REDUCE-AVOIDING
UNIX-AVOIDING
MSDOS-AVOIDING
NIL
3 > *** Garbage collection starting
NIL
NIL
NIL
NIL
NIL
NIL
NIL
NIL
NIL
NIL
4 > MKBMPATHEXPAND
NIL
5 > 5 > *** Garbage collection starting
*** GC 2:  5-Mar-05 23:04:31 (~ 17 ms cpu time, gc : 100 %)
*** time 17 ms, 24290 occupied, 360 recovered, 346878 free
 unable to allocate 140b88000 140b7c300
NIL
*** NUMERIC-OPS already loaded
NIL
NIL
T
NIL
NIL
6 > 6 > ("$bmload/" "" "$pl/" "$pll/")
7 > *** loading $bmload/slext.b
*** slext loaded
NIL
8 > NIL
9 > NIL
10 > NIL
*** Garbage collection starting
*** GC 3:  5-Mar-05 23:04:31 (~ 17 ms cpu time, gc : 100 %)
*** time 0 ms, 30213 occupied, 2880 recovered, 344787 free
NIL
12 > NIL
!a!nC!h!n=
!a!nC!h!n2L!o!w!e!rC!h!n
!a!nC!h!n2H!iC!h!n!s
!a!nC!h!n2L!a!s!tV!x
!a!nC!h!n2D!i!f!f
!a!nC!h!n2L!e!n!g!t!h
!a!nSETHIGHERCHAINS
!a!nS!e!tD!i!f!f
!a!nSDP0?
!a!nSDPT!a!i!l
!a!nSDP2F!i!r!s!tSDPT!m
!a!nSDP2F!i!r!s!tC!h!n
!a!nSDP2F!i!r!s!tQP!o!l
!a!nSDP2N!e!x!tSDPT!m
!a!nSDP2N!e!x!tC!h!n
!a!nSDP2N!e!x!tQP!o!l
!a!nSDPT!m2C!h!n
!a!nSDPT!m2QP!o!l
!a!nC!h!n&QP!o!l2SDPT!m
!a!nC!h!n&QP!o!l2SDPT!a!i!l
!a!nM!a!k!eN!e!wSDP
!a!nN!e!x!tSDPT!a!i!l
!a!nA!p!p!e!n!dSDPT!a!i!l
!a!nC!o!p!ySDP
!a!nI!n!s!e!r!tSDPT!m
!a!nR!e!m!o!v!eSDPT!m
!a!nR!e!p!l!a!c!eC!h!n!i!nSDPT!m
!a!nR!e!p!l!a!c!eQP!o!l!i!nSDPT!m
NIL
NIL
13 > 13 > FASLOUT: (DSKIN files) or type in expressions
When all done execute (FASLEND)
T
14 *DEFN > 14 *DEFN > !a!nPROLONGCHAIN PRINTCHAIN CHAIN2AUGMON SETCHAINSTARTS SETCHAINENDS 
!a!nR!i!n!gCONSTRUCTNEWCHAINS !a!nT!w!oM!o!d!u!l!e!sCONSTRUCTNEWCHAINS 
!a!nCONSTRUCTZEROCHAINS !a!nNEWGBELM2CHAIN !a!nLESSCHAIN !a!n!c!rLESSCHAIN1 
!a!n!c!rI!n!d!e!x2C!h!n
*** Garbage collection starting
*** GC 4:  5-Mar-05 23:04:31 (~ 340 ms cpu time, gc : 5 %)
*** time 0 ms, 36453 occupied, 338533 recovered, 334715 free
!a!n!c!rI!n!s!e!r!tC!h!n !a!n!c!rM!a!k!eC!h!a!i!n SETEDGESTRING 
GETEDGESTRING SETEDGESTRINGPRINTING GETEDGESTRINGPRINTING !a!nE!x!t!r!a!c!tC!h!nM!o!d!e!s15 *DEFN > !a!nCONCATTENSPOLMON !a!nMAKETENSPOL !a!nHIGHESTTENSMONOM2P!u!r!eM!o!n 
!a!nTENSDPT!mLESSP !a!nR!e!s!t!o!r!eT!e!n!s!o!r!d!e!r !a!nSORTSDT!p 
!a!nDESTRUCTADDTENSPOLS !a!nEXTRACTHIGHTENSMON !a!n!t!pPRINTQPOLORCONSTANT16 *DEFN > !a!nSDP_PRETTYPRINTSDP !a!nDP_PRETTYPRINTSDP PRINTTENSORPOLSDISTRIBUTED 
PRINTTENSORPOLSSEMIDISTRIBUTED GETTENSORPOLSPRINTMODE !a!nE!x!t!r!a!c!tTPM!o!d!e!s 
!a!nA!s!s!i!g!nSDPM!o!d!e !a!nA!s!s!i!g!nTM!s!t!r!i!n!g!s17 *DEFN > !a!nDIFF !a!n!d!iINTEG18 *DEFN > !a!nBETTIINIT
*** Garbage collection starting
*** GC 5:  5-Mar-05 23:04:32 (~ 697 ms cpu time, gc : 2 %)
*** time 0 ms, 35629 occupied, 335524 recovered, 339371 free
!a!n!b!tNUMBEROFCHAINS MEMBER2NIL !a!n!b!tZEROPROLONG !a!n!b!tALIGN 
!a!n!b!tMAKEMATRIXLINE !a!n!b!tMAKEMATRIX !a!nR!i!n!gBETTI !a!nALLBETTI 
PRINTBETTINUMBER PRINTBETTI PRINTCURRENTBETTI !a!n!b!tM!a!cC!o!r!r!e!c!t 
!a!n!b!tM!a!cS!e!t MACBETTIPRINT !a!nE!x!t!r!a!c!tB!e!t!t!iM!o!d!e!s19 *DEFN > MPRINT CFLINEPRINT RANK
*** Garbage collection starting
*** GC 6:  5-Mar-05 23:04:32 (~ 1071 ms cpu time, gc : 3 %)
*** time 17 ms, 36049 occupied, 338937 recovered, 335119 free
INPUTMATRIX2REDANDMATRIX !a!nRANK20 *DEFN > !b!n!mS!c!r!e!e!nI!n!p!u!t F!a!c!tA!l!gS!c!r!e!e!nI!n!p!u!t H!o!c!hS!c!r!e!e!nI!n!p!u!t 
!b!n!mC!h!e!c!kI!n!p!u!t !b!n!mC!h!e!c!kO!u!t!p!u!t !a!n!r!e!sS!c!r!e!e!nI!n!p!u!t 
WARNINGIFFINITEGB21 *DEFN > !a!n!b!n!mP!a!i!r2AM!o!n !a!n!b!n!mP!a!i!r2C!h!n !a!n!b!n!mC!h!n&AM!o!n2P!a!i!r 
!a!nUPDATESORTEDCHAINS !a!n!b!n!mS!e!tI!n!d!e!xL!i!m!i!t!s !a!n!b!n!mLMNWI!n!i!t 
!a!n!b!n!mU!p!d!a!t!eLMNW !a!n!b!n!mL!i!s!tT!e!n!s!o!rM!o!n!s 
!a!n!b!n!mT!w!oM!o!d!u!l!e!sBETTIINIT !a!n!b!t!b!n!mT!w!oM!o!d!u!l!e!sM!a!k!eM!a!t!r!i!xL!i!n!e 
!a!n!b!t!b!n!mT!w!oM!o!d!u!l!e!sMAKEMATRIX
*** Garbage collection starting
*** GC 7:  5-Mar-05 23:04:32 (~ 1428 ms cpu time, gc : 2 %)
*** time 0 ms, 42557 occupied, 328597 recovered, 332443 free
!a!nT!w!oM!o!d!u!l!e!sBETTI22 *DEFN > SETTENSPOLPRTSTRINGS GETTENSPOLPRTSTRINGS R!i!n!gR!e!s!o!l!u!t!i!o!nI!n!i!t 
T!w!oM!o!d!u!l!e!sR!e!s!o!l!u!t!i!o!nI!n!i!t CALCBETTI ONFLYBETTI 
GETBETTINUMS GETBTORDER GETBTDEGREE GETBTVALUE !a!n!i!fR!i!n!gR!e!s!o!l!u!t!i!o!nF!i!xD!e!g!r!e!e 
!a!n!i!fT!w!oM!o!d!u!l!e!sR!e!s!o!l!u!t!i!o!nF!i!xD!e!g!r!e!e
*** Garbage collection starting
*** GC 8:  5-Mar-05 23:04:33 (~ 1734 ms cpu time, gc : 2 %)
*** time 17 ms, 47846 occupied, 327140 recovered, 323322 free
!a!n!i!fM!o!d!u!l!eR!e!s!o!l!u!t!i!o!nF!i!xD!e!g!r!e!e PRINTNEWCHAINSDIFF 
PRINTCHAINSDIFF PRTCHNDIFF !a!nR!e!s!o!l!u!t!i!o!nF!i!x!cD!e!gE!n!d 
R!e!s!o!l!u!t!i!o!nD!o!n!e R!e!s!o!l!u!t!i!o!nC!l!e!a!r CLEARRESOLUTION 
ANICKDISPLAY BETTICALC CALCULATEANICKRESOLUTIONTOLIMIT E!x!t!r!a!c!tA!n!i!c!kM!o!d!e!s 
R!e!s!t!o!r!eA!n!i!c!kM!o!d!e!s SETANICKRESOLUTION A!n!i!c!kR!i!n!gO!b!j!e!c!t 
A!n!i!c!kM!o!d!u!l!eO!b!j!e!c!t A!n!i!c!kT!w!oM!o!d!u!l!e!sO!b!j!e!c!t 
A!n!i!c!kF!a!c!tA!l!gO!b!j!e!c!t23 *DEFN > 
*** Init code length is 203
**FASL**INITCODE**24 > 
Quitting
