\relax 
\@writefile{toc}{\contentsline {section}{\numberline {2.1}Introduction}{26}}
\newlabel{sec:intr}{{2.1}{26}}
\@writefile{toc}{\contentsline {section}{\numberline {2.2}{\bf  Bergman}: philosophy and approach}{26}}
\@writefile{toc}{\contentsline {section}{\numberline {2.3}{\bf  Bergman}: main restrictions}{26}}
\@writefile{toc}{\contentsline {section}{\numberline {2.4}The polynomial ring set up}{27}}
\newlabel{modes}{{2.4}{27}}
\@writefile{toc}{\contentsline {subsection}{\numberline {2.4.1}Background}{27}}
\@writefile{toc}{\contentsline {subsection}{\numberline {2.4.2}Variable names and the flag {\bf  raise} }{27}}
\@writefile{toc}{\contentsline {subsection}{\numberline {2.4.3}Ordering}{29}}
\newlabel{sec:ord}{{2.4.3}{29}}
\@writefile{toc}{\contentsline {subsection}{\numberline {2.4.4}Using eliminating ordering}{30}}
\@writefile{toc}{\contentsline {subsection}{\numberline {2.4.5}Coefficients: background}{32}}
\newlabel{sec:field}{{2.4.5}{32}}
\@writefile{toc}{\contentsline {subsection}{\numberline {2.4.6}Coefficients: Choices}{33}}
\@writefile{toc}{\contentsline {subsection}{\numberline {2.4.7}Weights handling}{35}}
\@writefile{toc}{\contentsline {subsection}{\numberline {2.4.8}Homogenisation}{37}}
\newlabel{homog}{{2.4.8}{37}}
\@writefile{toc}{\contentsline {subsection}{\numberline {2.4.9}Strategies}{39}}
\@writefile{toc}{\contentsline {section}{\numberline {2.5}Ideals and quotient ring}{39}}
\@writefile{toc}{\contentsline {subsection}{\numberline {2.5.1}Input--output modes for the polynomials}{40}}
\newlabel{inputform}{{2.5.1}{40}}
\@writefile{toc}{\contentsline {section}{\numberline {2.6}Calculating and using series}{42}}
\newlabel{sec:add}{{2.6}{42}}
\@writefile{toc}{\contentsline {subsection}{\numberline {2.6.1}Hilbert series computation}{42}}
\newlabel{Hilbertseries}{{2.6.1}{42}}
\@writefile{toc}{\contentsline {subsection}{\numberline {2.6.2}Computation of Gr\"{o}bner basis using known Hilbert series}{49}}
\newlabel{limHS}{{2.6.2}{49}}
\@writefile{toc}{\contentsline {section}{\numberline {2.7}The jumping  rabbit}{51}}
\@writefile{toc}{\contentsline {section}{\numberline {2.8}Some bricks to build your own procedures}{53}}
\newlabel{sec:bricks}{{2.8}{53}}
\@setckpt{advance}{
\setcounter{page}{55}
\setcounter{equation}{0}
\setcounter{enumi}{3}
\setcounter{enumii}{0}
\setcounter{enumiii}{0}
\setcounter{enumiv}{0}
\setcounter{footnote}{0}
\setcounter{mpfootnote}{0}
\setcounter{part}{0}
\setcounter{chapter}{2}
\setcounter{section}{8}
\setcounter{subsection}{0}
\setcounter{subsubsection}{0}
\setcounter{paragraph}{0}
\setcounter{subparagraph}{0}
\setcounter{figure}{0}
\setcounter{table}{0}
\setcounter{exm}{4}
}
