\relax 
\@writefile{toc}{\contentsline {subsection}{\numberline {3.2.3}The list of the top level procedures}{118}}
\newlabel{functions}{{3.2.3}{118}}
\@writefile{toc}{\contentsline {subsection}{\numberline {3.2.4}User available flags and variables}{123}}
\newlabel{flags}{{3.2.4}{123}}
\@writefile{toc}{\contentsline {subsection}{\numberline {3.2.5}User available counters}{128}}
\@writefile{toc}{\contentsline {subsection}{\numberline {3.2.6}User readable variables}{129}}
\@writefile{toc}{\contentsline {subsection}{\numberline {3.2.7}User defined variables}{129}}
\@writefile{toc}{\contentsline {section}{\numberline {3.3}The commutative Hilbert series procedures}{130}}
\newlabel{comHS}{{3.3}{130}}
\@setckpt{funclist}{
\setcounter{page}{134}
\setcounter{equation}{0}
\setcounter{enumi}{3}
\setcounter{enumii}{0}
\setcounter{enumiii}{0}
\setcounter{enumiv}{0}
\setcounter{footnote}{0}
\setcounter{mpfootnote}{0}
\setcounter{part}{0}
\setcounter{chapter}{3}
\setcounter{section}{3}
\setcounter{subsection}{0}
\setcounter{subsubsection}{0}
\setcounter{paragraph}{0}
\setcounter{subparagraph}{0}
\setcounter{figure}{0}
\setcounter{table}{0}
\setcounter{exm}{4}
}
