\relax 
\@writefile{toc}{\contentsline {section}{\numberline {4.1}Background}{132}}
\@writefile{toc}{\contentsline {section}{\numberline {4.2}Organisation of the programme source files}{133}}
\@writefile{toc}{\contentsline {section}{\numberline {4.3}Overview of the (main) units and source files}{134}}
\@writefile{toc}{\contentsline {section}{\numberline {4.4}Basic structures and naming conventions}{136}}
\@writefile{toc}{\contentsline {section}{\numberline {4.5}Global structures and programme outline }{139}}
\@setckpt{inside}{
\setcounter{page}{143}
\setcounter{equation}{0}
\setcounter{enumi}{3}
\setcounter{enumii}{0}
\setcounter{enumiii}{0}
\setcounter{enumiv}{0}
\setcounter{footnote}{0}
\setcounter{mpfootnote}{0}
\setcounter{part}{0}
\setcounter{chapter}{4}
\setcounter{section}{5}
\setcounter{subsection}{0}
\setcounter{subsubsection}{0}
\setcounter{paragraph}{0}
\setcounter{subparagraph}{0}
\setcounter{figure}{0}
\setcounter{table}{0}
\setcounter{exm}{4}
}
