\relax 
\@writefile{toc}{\contentsline {chapter}{\numberline {1}A brief bergman tutorial}{7}}
\@writefile{lof}{\addvspace {10\p@ }}
\@writefile{lot}{\addvspace {10\p@ }}
\@input{forbegin.aux}
\@writefile{toc}{\contentsline {chapter}{\numberline {2}Computations in bergman}{25}}
\@writefile{lof}{\addvspace {10\p@ }}
\@writefile{lot}{\addvspace {10\p@ }}
\newlabel{comput}{{2}{25}}
\@input{advance.aux}
\@input{modules.aux}
\@input{underred.aux}
\@input{debugg.aux}
\@writefile{toc}{\contentsline {chapter}{\numberline {3}Bergman for the advanced user}{109}}
\@writefile{lof}{\addvspace {10\p@ }}
\@writefile{lot}{\addvspace {10\p@ }}
\@input{toplevel.aux}
\@input{refmodes.aux}
\@input{funclist.aux}
