\relax 
\@writefile{toc}{\contentsline {section}{\numberline {2.9}Modules over non-commutative algebras}{55}}
\@writefile{toc}{\contentsline {subsection}{\numberline {2.9.1} Gr\"{o}bner basis for modules over non-commutative algebras}{55}}
\@writefile{toc}{\contentsline {subsection}{\numberline {2.9.2}Gr\"{o}bner basis for modules over non-commutative algebras}{56}}
\@writefile{toc}{\contentsline {subsection}{\numberline {2.9.3}Hilbert series for modules over non-commutative algebras}{58}}
\@writefile{toc}{\contentsline {subsection}{\numberline {2.9.4}The Anick resolution and Betti numbers for the trivial module}{63}}
\@writefile{toc}{\contentsline {subsection}{\numberline {2.9.5}Writing own procedures}{66}}
\@writefile{toc}{\contentsline {subsection}{\numberline {2.9.6}The Anick resolution and Betti numbers for a right module}{68}}
\newlabel{onemodbetti}{{2.9.6}{68}}
\@writefile{toc}{\contentsline {subsection}{\numberline {2.9.7}The Anick resolution and Betti numbers for right ideals, two-sided ideals, and factor-algebras, considered as right modules}{73}}
\@writefile{toc}{\contentsline {subsection}{\numberline {2.9.8}Working with the left modules}{79}}
\@writefile{toc}{\contentsline {subsection}{\numberline {2.9.9} Betti numbers for two modules}{85}}
\@writefile{toc}{\contentsline {subsection}{\numberline {2.9.10}Calculating Hochschild homology of an algebra}{90}}
\@setckpt{modules}{
\setcounter{page}{97}
\setcounter{equation}{0}
\setcounter{enumi}{3}
\setcounter{enumii}{0}
\setcounter{enumiii}{0}
\setcounter{enumiv}{0}
\setcounter{footnote}{0}
\setcounter{mpfootnote}{0}
\setcounter{part}{0}
\setcounter{chapter}{2}
\setcounter{section}{9}
\setcounter{subsection}{10}
\setcounter{subsubsection}{0}
\setcounter{paragraph}{0}
\setcounter{subparagraph}{0}
\setcounter{figure}{0}
\setcounter{table}{0}
\setcounter{exm}{4}
}
