\relax 
\@writefile{toc}{\contentsline {section}{\numberline {3.2}References}{112}}
\@writefile{toc}{\contentsline {subsection}{\numberline {3.2.1}Sustained operating mode alternatives}{112}}
\newlabel{refm}{{3.2.1}{112}}
\@writefile{toc}{\contentsline {subsection}{\numberline {3.2.2}The mode changing procedures}{114}}
\@setckpt{refmodes}{
\setcounter{page}{118}
\setcounter{equation}{0}
\setcounter{enumi}{3}
\setcounter{enumii}{0}
\setcounter{enumiii}{0}
\setcounter{enumiv}{0}
\setcounter{footnote}{0}
\setcounter{mpfootnote}{0}
\setcounter{part}{0}
\setcounter{chapter}{3}
\setcounter{section}{2}
\setcounter{subsection}{2}
\setcounter{subsubsection}{0}
\setcounter{paragraph}{0}
\setcounter{subparagraph}{0}
\setcounter{figure}{0}
\setcounter{table}{0}
\setcounter{exm}{4}
}
