\relax 
\@writefile{toc}{\contentsline {section}{\numberline {2.10}Bergman under Reduce}{97}}
\newlabel{reduce}{{2.10}{97}}
\@writefile{toc}{\contentsline {subsection}{\numberline {2.10.1}Working in the Reduce syntax}{97}}
\@writefile{toc}{\contentsline {subsection}{\numberline {2.10.2}Parametric coefficients}{98}}
\@setckpt{underred}{
\setcounter{page}{101}
\setcounter{equation}{0}
\setcounter{enumi}{3}
\setcounter{enumii}{0}
\setcounter{enumiii}{0}
\setcounter{enumiv}{0}
\setcounter{footnote}{0}
\setcounter{mpfootnote}{0}
\setcounter{part}{0}
\setcounter{chapter}{2}
\setcounter{section}{10}
\setcounter{subsection}{2}
\setcounter{subsubsection}{0}
\setcounter{paragraph}{0}
\setcounter{subparagraph}{0}
\setcounter{figure}{0}
\setcounter{table}{0}
\setcounter{exm}{4}
}
