exit(1);
    "Unexpected end of file while looking for \"%s\" in the
    input file.\n"

exit(2);
    "Waited string \"%s\" aren't matched by the input file.
    Program aborted.\n"

exit(3);
    "Unexpected end of file exceeded in the input file.
    Read procedure aborted.\n"

exit(4);
    "Error. Monom %s isn't a n-chain. Probaply incorrect
     Grebner's basis was given."

exit(5);
    "Error. Couldn't extract monom M to n-chain.
     Probaply incorrect Grebner's basis was given."

exit(6);
    "Error, No Grebner's file given.\n"

exit(7);
    "Error, No command file given.\n"
    