\relax 
\citation{StLisp}
\@writefile{toc}{\contentsline {section}{\numberline {4.1}Bergman proceedings extending\\ Standard Lisp}{188}}
\@writefile{toc}{\contentsline {subsection}{\numberline {4.1.1}Introduction}{188}}
\@writefile{toc}{\contentsline {subsection}{\numberline {4.1.2}Fast variant Standard Lisp extensions}{188}}
\@writefile{toc}{\contentsline {subsection}{\numberline {4.1.3}General Standard Lisp extensions}{189}}
\@writefile{toc}{\contentsline {section}{\numberline {4.2}Formal description of bergman}{196}}
\@writefile{toc}{\contentsline {subsection}{\numberline {4.2.1}Organisation of the programme source files}{196}}
\@writefile{toc}{\contentsline {subsection}{\numberline {4.2.2}Overview of the (main) units and source files}{197}}
\@writefile{toc}{\contentsline {subsection}{\numberline {4.2.3}Basic structures and naming conventions}{199}}
\newlabel{monomials}{{4.2.3}{199}}
\citation{StLisp}
\@writefile{toc}{\contentsline {subsection}{\numberline {4.2.4}Global structures and programme outline}{204}}
\newlabel{globals}{{4.2.4}{204}}
\@writefile{toc}{\contentsline {section}{\numberline {4.3}Mathematical background}{207}}
\newlabel{sec:Math-app}{{4.3}{207}}
\citation{Adams,Becker,Frob,Green,Kreuzer,Mora,Pfister,Sturm}
\@setckpt{App}{
\setcounter{page}{211}
\setcounter{equation}{0}
\setcounter{enumi}{11}
\setcounter{enumii}{0}
\setcounter{enumiii}{0}
\setcounter{enumiv}{0}
\setcounter{footnote}{0}
\setcounter{mpfootnote}{0}
\setcounter{part}{0}
\setcounter{chapter}{4}
\setcounter{section}{3}
\setcounter{subsection}{0}
\setcounter{subsubsection}{0}
\setcounter{paragraph}{0}
\setcounter{subparagraph}{0}
\setcounter{figure}{0}
\setcounter{table}{0}
\setcounter{parentequation}{0}
}
