\relax 
\@writefile{toc}{\contentsline {section}{\numberline {3.1}References}{140}}
\newlabel{refm}{{3.1}{140}}
\@writefile{toc}{\contentsline {subsection}{\numberline {3.1.1}Mode handling}{140}}
\@writefile{toc}{\contentsline {subsection}{\numberline {3.1.2}Sustained operating mode alternatives}{142}}
\@writefile{toc}{\contentsline {subsection}{\numberline {3.1.3}The mode designator tree structure}{144}}
\newlabel{tree}{{3.1.3}{144}}
\@writefile{toc}{\contentsline {subsection}{\numberline {3.1.4}The mode handling procedures}{147}}
\@writefile{toc}{\contentsline {section}{\numberline {3.2}Monomials and polynomials in {\bf  bergman} }{157}}
\newlabel{monomialsand}{{3.2}{157}}
\@writefile{toc}{\contentsline {section}{\numberline {3.3}Controlling the calculations process}{165}}
\newlabel{puresyz}{{3.3}{173}}
\@writefile{toc}{\contentsline {section}{\numberline {3.4}The commutative Hilbert series procedures}{176}}
\newlabel{comHS}{{3.4}{176}}
\@writefile{toc}{\contentsline {section}{\numberline {3.5}User available flags}{180}}
\newlabel{flags}{{3.5}{180}}
\@writefile{toc}{\contentsline {section}{\numberline {3.6}User available counters}{185}}
\@setckpt{Bergfor}{
\setcounter{page}{186}
\setcounter{equation}{0}
\setcounter{enumi}{11}
\setcounter{enumii}{0}
\setcounter{enumiii}{0}
\setcounter{enumiv}{0}
\setcounter{footnote}{0}
\setcounter{mpfootnote}{0}
\setcounter{part}{0}
\setcounter{chapter}{3}
\setcounter{section}{6}
\setcounter{subsection}{0}
\setcounter{subsubsection}{0}
\setcounter{paragraph}{0}
\setcounter{subparagraph}{0}
\setcounter{figure}{0}
\setcounter{table}{0}
\setcounter{parentequation}{0}
}
