\relax 
\@writefile{toc}{\contentsline {chapter}{\numberline {1}A brief bergman tutorial}{7}}
\@writefile{lof}{\addvspace {10\p@ }}
\@writefile{lot}{\addvspace {10\p@ }}
\@input{forbegin.aux}
\@writefile{toc}{\contentsline {chapter}{\numberline {2}Computations in bergman}{27}}
\@writefile{lof}{\addvspace {10\p@ }}
\@writefile{lot}{\addvspace {10\p@ }}
\newlabel{comput}{{2}{27}}
\@input{Comput.aux}
\@writefile{toc}{\contentsline {chapter}{\numberline {3}Bergman for the advanced user}{139}}
\@writefile{lof}{\addvspace {10\p@ }}
\@writefile{lot}{\addvspace {10\p@ }}
\@input{Bergfor.aux}
\@writefile{toc}{\contentsline {chapter}{\numberline {4}Some useful appendixes}{187}}
\@writefile{lof}{\addvspace {10\p@ }}
\@writefile{lot}{\addvspace {10\p@ }}
\@input{App.aux}
\@input{bibl.aux}
